pythrash - The tidyverse
…
 [1] 4.17 5.58 5.18 6.11 4.50 4.61 5.17 4.53 5.33 5.14 4.81 4.17 4.41 3.59 5.87
[16] 3.83 6.03 4.89 4.32 4.69 6.31 5.12 5.54 5.50 5.37 5.29 4.92 6.15 5.80 5.26

Tidyverse: tibble

Now let’s see how tidyverse handles the same data:

# Convert to tibble
tbl <- as_tibble(df)

# View the tibble
tbl

# A tibble: 30 × 2
   weight group
    <dbl> <fct>
 1   4.17 ctrl 
 2   5.58 ctrl 
 3   5.18 ctrl 
 4   6.11 ctrl 
 5   4.5  ctrl 
 6   4.61 ctrl 
 7   5.17 ctrl 
 8   4.53 ctrl 
 9   5.33 ctrl 
10   5.14 ctrl 
# ℹ 20 more rows
…
Preserves data types: Doesn’t automatically convert strings to factors

Accessing columns in tidyverse:

# Still can use $ notation
tbl$weight

 [1] 4.17 5.58 5.18 6.11 4.50 4.61 5.17 4.53 5.33 5.14 4.81 4.17 4.41 3.59 5.87
[16] 3.83 6.03 4.89 4.32 4.69 6.31 5.12 5.54 5.50 5.37 5.29 4.92 6.15 5.80 5.26

# Or use select() function (we'll learn more about this)
tbl %>% select(weight)

# A tibble: 30 × 1
   weight
    <dbl>
 1   4.17
 2   5.58
 3   5.18
 4   6.11
 5   4.5 
 6   4.61
 7   5.17
 8   4.53
 9   5.33
10   5.14
# ℹ 20 more rows
…
df_sorted <- df[order(df$weight, decreasing=TRUE), ]

Tidyverse approach:

tbl %>% 
  arrange(weight)

# A tibble: 30 × 2
   group weight
   <fct>  <dbl>
 1 trt1    3.59
 2 trt1    3.83
 3 ctrl    4.17
 4 trt1    4.17
 5 trt1    4.32
 6 trt1    4.41
 7 ctrl    4.5 
 8 ctrl    4.53
 9 ctrl    4.61
10 trt1    4.69
# ℹ 20 more rows
…
